<?xml version="1.0" encoding="utf-8"?>
<!-- Generator: Adobe Illustrator 25.2.0, SVG Export Plug-In . SVG Version: 6.00 Build 0)  -->
<svg version="1.1" id="圖層_1" xmlns="http://www.w3.org/2000/svg" xmlns:xlink="http://www.w3.org/1999/xlink" x="0px" y="0px"
	 viewBox="0 0 783 850" style="enable-background:new 0 0 783 850;" xml:space="preserve">
<style type="text/css">
	.st0{fill:#00BFD4;}
	.st1{fill:#F92FA8;}
</style>
<path class="st0" d="M316.1,75.1c-75,14.4-143.9,50.6-199.4,105.3C42.6,253.3,0.5,353.1,0,457.1C-0.5,562.6,40.6,662,115.8,736.4
	C189.1,809.2,288.1,850,391.5,850c104.5,0,202.9-40.8,276.9-114.5c73.8-74,114.6-172.2,114.6-276.6s-40.8-202.7-114.6-276.6
	c-55.9-55.9-125.6-92.7-201.7-107.4c-22.9-4.4-42.6-18.5-54.3-38.7L391.5,0l-20.9,36.2C359,56.3,339,70.5,316.1,75.1z M678.5,458.9
	c0,76.5-29.8,148.6-84.1,202.7c-54.1,54-126.3,84-202.9,84c-76.6,0-148.8-29.8-202.9-84c-54.1-54-84.1-126.2-84.1-202.7
	s29.8-148.6,84.1-202.7s126.3-84,202.9-84s148.8,29.8,202.9,84C648.5,310.5,678.5,382.4,678.5,458.9z"/>
<ellipse class="st1" cx="391.5" cy="458.9" rx="339.5" ry="344"/>
</svg>
