<?xml version="1.0" encoding="utf-8"?>
<!-- Generator: Adobe Illustrator 25.3.1, SVG Export Plug-In . SVG Version: 6.00 Build 0)  -->
<svg version="1.1" id="圖層_1" xmlns="http://www.w3.org/2000/svg" xmlns:xlink="http://www.w3.org/1999/xlink" x="0px" y="0px"
	 viewBox="0 0 383 353" style="enable-background:new 0 0 383 353;" xml:space="preserve">
<style type="text/css">
	.st0{fill:#FE96BD;}
</style>
<path class="st0" d="M34.2,210.8c6.5,33.7,22.8,64.7,47.4,89.7c32.8,33.3,77.7,52.3,124.5,52.5c47.5,0.2,92.2-18.2,125.7-52.1
	c32.8-33,51.1-77.5,51.1-124c0-47-18.3-91.2-51.5-124.5C298.2,19.2,254,0.8,207,0.8S115.8,19.2,82.5,52.4
	c-25.1,25.2-41.7,56.5-48.3,90.7c-2,10.3-8.3,19.2-17.4,24.4l-16.3,9.4l16.3,9.4C25.8,191.6,32.2,200.5,34.2,210.8z"/>
</svg>
